package com.sample

import com.gt.drools.WFRules.Message;
import com.gt.drools.WFRules.User;
import com.gt.drools.WFRules.Business;
import java.util.ArrayList;


rule "Hello World-Belgaum"
    when
        m : Message( status == Message.HELLO, myMessage : message )
    then
        System.out.println( myMessage );
        m.setMessage( "Belgaum Plant" );
        m.setStatus( Message.GOODBYE );
        update( m );
end

rule "GoodBye-Belgaum"
    when
        Message( status == Message.GOODBYE, myMessage : message )
    then
        System.out.println("Belgaum DOA----"+ myMessage );
end

 
rule "Belgaum-Rule1"
	when
	
		b : Business(businessType == "Aluminium",  doa == "Belgaum4", value < 2000000, clusterName=="Belgaum")
		||
		b : Business(businessType == "Aluminium",  doa == "Belgaum5", value < 1000000, clusterName=="Belgaum")
	then
	       b.setData("Belgaum - Head F&C::UnitHead - Belgaum::BF Head - Chemical::BH-Chemical");
end

rule "Belgaum-Rule2"
	when
		b : Business(businessType == "Aluminium",  doa == "Belgaum4", value >=  2000000, value< 50000000, clusterName=="Belgaum")
		||
		b : Business(businessType == "Aluminium",  doa == "Belgaum5", value >=  1000000, value< 500000000, clusterName=="Belgaum")
		||
		b : Business(businessType == "Aluminium",  requestType == "Unplanned", doa == "Belgaum1", value >=  100000000,value <=  200000000, clusterName=="Belgaum")
		||
		b : Business(businessType == "Aluminium",  requestType == "Planned", doa == "Belgaum1", value >=  150000000,value <=  300000000, clusterName=="Belgaum")
	then
	       b.setData("Belgaum - Head F&C::UnitHead - Belgaum::BH-Chemical::Controller::CFO");
end

rule "Belgaum-Rule3"
	when
	b : Business(businessType == "Aluminium",  doa == "Belgaum5", value >= 500000000, clusterName=="Belgaum")
	||
	b : Business(businessType == "Aluminium", doa == "Belgaum4", value >= 50000000, clusterName=="Belgaum")
	||
	b : Business(businessType == "Aluminium",  requestType == "Unplanned", doa == "Belgaum1", value >   200000000, clusterName=="Belgaum")
	||
	b : Business(businessType == "Aluminium",  requestType == "Planned", doa == "Belgaum1", value > 300000000, clusterName=="Belgaum")
		
	then
	     b.setData("Belgaum - Head F&C::UnitHead - Belgaum::BH-Chemical::Controller::CFO::MD");
end

rule "Belgaum-Rule4"
	when
	b : Business(businessType == "Aluminium", requestType == "Planned", doa == "Belgaum2", value < 500000000, clusterName=="Belgaum")
	||
	b : Business(businessType == "Aluminium", requestType == "Unplanned", doa == "Belgaum2", value < 300000000, clusterName=="Belgaum")
		
	then
	       b.setData("Belgaum - Head F&C::UnitHead - Belgaum::BH-Chemical::SE-Mining & Minerals-Controller::SE-Mining & Minerals-Head");
end

rule "Belgaum-Rule5"
	when
	b : Business(businessType == "Aluminium", requestType == "Planned", doa == "Belgaum3", value < 500000000, clusterName=="Belgaum")
	||
	b : Business(businessType == "Aluminium", requestType == "Unplanned", doa == "Belgaum3",value < 300000000, clusterName=="Belgaum")
		
	then
	     b.setData("Belgaum - Head F&C::UnitHead - Belgaum::BH-Chemical::SE-Mining & Minerals-Controller::SE-Mining & Minerals-Head::Head - Central Logistics");
end

rule "Belgaum-Rule6"
	when
		b : Business(businessType == "Aluminium", requestType == "Planned", doa == "Belgaum2", value >= 500000000, clusterName=="Belgaum")
		||
		b : Business(businessType == "Aluminium", requestType == "Unplanned", doa == "Belgaum2", value >= 300000000, clusterName=="Belgaum")
		
	then
	       b.setData("Belgaum - Head F&C::UnitHead - Belgaum::BH-Chemical::SE-Mining & Minerals-Controller::SE-Mining & Minerals-Head::CFO::MD");
end
rule "Belgaum-Rule7"
	when
		b : Business(businessType == "Aluminium", requestType == "Planned", doa == "Belgaum3", value >= 500000000, clusterName=="Belgaum")
		||
		b : Business(businessType == "Aluminium", requestType == "Unplanned", doa == "Belgaum3", value >= 300000000, clusterName=="Belgaum")
		
	then
	       b.setData("Belgaum - Head F&C::UnitHead - Belgaum::BH-Chemical::SE-Mining & Minerals-Controller::SE-Mining & Minerals-Head::Head - Central Logistics::CFO::MD");
end

rule "Belgaum-Rule8"
	when
		b : Business(businessType == "Aluminium", doa == "Belgaum6", clusterName=="Belgaum")
		
	then
	
	       b.setData("Belgaum - Head F&C::UnitHead - Belgaum::BF Head - Chemical::BH-Chemical::Controller::CFO::MD");
end