package com.sample;
import com.gt.drools.WFRules.Message;
import com.gt.drools.WFRules.User;
import com.gt.drools.WFRules.Business;
import java.util.ArrayList;

//from row number: 1
rule "Row 1 Corp-IT"
	dialect "mvel"
	when
		b : Business( requestType == "Planned" , value > 0 , value <= 10000000 , deptId == 1 )
	then
		b.setData( "CIO" );
end

//from row number: 2
rule "Row 2 Corp-IT"
	dialect "mvel"
	when
		b : Business( requestType == "Unplanned" , value > 0 , value <= 2500000 , deptId == 1 )
	then
		b.setData( "CIO" );
end

//from row number: 3
rule "Row 3 Corp-IT"
	dialect "mvel"
	when
		b : Business( requestType == "Planned" , value > 10000000 , value <= 5.0E7 , deptId == 1 )
	then
		b.setData( "CIO::CFO" );
end

//from row number: 4
rule "Row 4 Corp-IT"
	dialect "mvel"
	when
		b : Business( requestType == "Unplanned" , value > 2500000 , value <= 10000000 , deptId == 1 )
	then
		b.setData( "CIO::CFO" );
end

//from row number: 5
rule "Row 5 Corp-IT"
	dialect "mvel"
	when
		b : Business( requestType == "Planned" , value > 5.0E7 , deptId == 1 )
	then
		b.setData( "CIO::CFO::MD" );
end

//from row number: 6
rule "Row 6 Corp-IT"
	dialect "mvel"
	when
		b : Business( requestType == "Unplanned" , value > 1.0E7 , deptId == 1 )
	then
		b.setData( "CIO::CFO::MD" );
end

