package com.sample

import com.gt.drools.WFRules.Message;
import com.gt.drools.WFRules.User;
import com.gt.drools.WFRules.Business;
import java.util.ArrayList;

rule "Hello World-dahej"
    when
        m : Message( status == Message.HELLO, myMessage : message )
    then
        System.out.println( myMessage );
        m.setMessage( "dahej Plant" );
        m.setStatus( Message.GOODBYE );
        update( m );
end

rule "GoodBye-dahej"
    when
        Message( status == Message.GOODBYE, myMessage : message )
    then
        System.out.println("dahej DOA----"+ myMessage );
end



rule "Rule-Copper1"
	when
		b : Business(businessType =="Copper", clusterName=="Dahej", materialDetails == 1 || materialDetails == 3 )
	then
	 b.setData("Dahej - Head F & C::Location Head -Birla Copper::BH-Copper");
	    
end

rule "Rule-Copper2"
	when
		b : Business(businessType =="Copper", clusterName=="Dahej", materialDetails == 2)
	then
	 b.setData("Dahej - Head F & C::Location Head -Birla Copper::BH-Copper::Controller::MD");
	    
end

rule "Rule-Copper3"
	when
		b : Business(businessType =="Copper", clusterName=="Dahej",  materialDetails == 5)
	then
	 b.setData("CC Manager::BH-Copper");
	    
end

rule "Rule-Copper4"
	when
		b : Business(businessType =="Copper", clusterName=="Dahej",  materialDetails == 4 || materialDetails == 6)
	then
	 b.setData("CC Manager::BH-Copper::Controller::MD");
	    
end


rule "Rule-Copper5"
	when
		b : Business(businessType =="Copper", clusterName=="Dahej",  doa == "DHJ6")
	then
	 b.setData("Dahej - Head F & C::Location Head -Birla Copper::BH-Copper::Controller::CFO::MD");
end

rule "Rule-Copper6"
	when
		b : Business(businessType =="Copper",value > 0,value < 2000000, clusterName=="Dahej",  doa == "DHJ7")
		||
		b : Business(businessType =="Copper",value > 0,value < 1000000, clusterName=="Dahej",  doa == "DHJ2")
		||
		b : Business(businessType =="Copper",requestType == "Planned" ,value > 0,value <= 100000000 , clusterName=="Dahej",  doa == "DHJ3")
		||
		b : Business(businessType =="Copper",requestType == "Unplanned",value >0,value <= 50000000 , clusterName=="Dahej",  doa == "DHJ3")
		||
		b : Business(businessType =="Copper",requestType == "Planned" ,value > 0,value <= 100000000 , clusterName=="Dahej",  doa == "DHJ5")
		||
		b : Business(businessType =="Copper",requestType == "Unplanned",value >0,value <= 50000000 , clusterName=="Dahej",  doa == "DHJ5")
		||
		b : Business(businessType =="Copper",requestType == "Planned" ,value > 0,value <= 100000000 , clusterName=="Dahej",  doa == "DHJ1")
		||
		b : Business(businessType =="Copper",requestType == "Unplanned",value >0,value <= 50000000 , clusterName=="Dahej",  doa == "DHJ1")
	then
	 b.setData("Dahej - Head F & C.Controller::Location Head -Birla Copper");
	    
end

rule "Rule-Copper7"
	when
		b : Business(businessType =="Copper",value >= 2000000,value < 50000000 , clusterName=="Dahej",  doa == "DHJ7")
		||
		b : Business(businessType =="Copper",value >= 1000000,value < 500000000 , clusterName=="Dahej",  doa == "DHJ2")
		||
		b : Business(businessType =="Copper",requestType == "Planned" ,value > 100000000,value <= 500000000 , clusterName=="Dahej",  doa == "DHJ3")
		||
		b : Business(businessType =="Copper",requestType == "Unplanned",value >50000000,value <= 300000000 , clusterName=="Dahej",  doa == "DHJ3")
		||
		b : Business(businessType =="Copper",requestType == "Planned" ,value > 100000000,value <= 500000000 , clusterName=="Dahej",  doa == "DHJ5")
		||
		b : Business(businessType =="Copper",requestType == "Unplanned",value >50000000,value <= 300000000 , clusterName=="Dahej",  doa == "DHJ5")
		||
		b : Business(businessType =="Copper",requestType == "Planned" ,value > 100000000,value <= 500000000 , clusterName=="Dahej",  doa == "DHJ1")
		||
		b : Business(businessType =="Copper",requestType == "Unplanned",value >50000000,value <= 300000000 , clusterName=="Dahej",  doa == "DHJ1")
		
		
	then
	 b.setData("Dahej - Head F & C.Controller::Location Head -Birla Copper::BH-Copper");
	    
end


rule "Rule-Copper8"
	when
		b : Business(businessType =="Copper",value >= 50000000 , clusterName=="Dahej",  doa == "DHJ7")
		||
		b : Business(businessType =="Copper",value >= 500000000 , clusterName=="Dahej",  doa == "DHJ2")
	then
	 b.setData("Dahej - Head F & C::Location Head -Birla Copper::BH-Copper::Controller::CFO::MD");
	    
end

rule "Rule-Copper9"
	when
		b : Business(businessType =="Copper",requestType == "Planned" ,value > 500000000 , clusterName=="Dahej",  doa == "DHJ3")
		||
		b : Business(businessType =="Copper",requestType == "Unplanned",value >300000000 , clusterName=="Dahej",  doa == "DHJ3")
		||
		b : Business(businessType =="Copper",requestType == "Planned" ,value > 500000000 , clusterName=="Dahej",  doa == "DHJ5")
		||
		b : Business(businessType =="Copper",requestType == "Unplanned",value >300000000 , clusterName=="Dahej",  doa == "DHJ5")
		||
		b : Business(businessType =="Copper",requestType == "Planned" ,value > 500000000 , clusterName=="Dahej",  doa == "DHJ1")
		||
		b : Business(businessType =="Copper",requestType == "Unplanned",value >300000000 , clusterName=="Dahej",  doa == "DHJ1")
	then
	 b.setData("Dahej - Head F & C.Controller::Location Head -Birla Copper::BH-Copper::CFO::MD");
	    
end
