package com.sample

import com.gt.drools.WFRules.Message;
import com.gt.drools.WFRules.User;
import com.gt.drools.WFRules.Business;
import java.util.ArrayList;


rule "Hello World-rp-plant"
    when
        m : Message( status == Message.HELLO, myMessage : message )
    then
        System.out.println( myMessage );
        m.setMessage( "Goodbye cruelty RP Plant" );
        m.setStatus( Message.GOODBYE );
        update( m );
end

rule "GoodBye-rp-plant"
    when
        Message( status == Message.GOODBYE, myMessage : message )
    then
        System.out.println("rpPlant.drl----"+ myMessage );
end

 

rule "Aluminium1-Belur-rp-plant"
	when
		b : Business(businessType =="Aluminium",requestType == "Planned",value >= 0,value <=5000000,clusterName=="BMTAK", plantName=="Belur")
		||
		b : Business(businessType =="Aluminium" ,requestType == "Unplanned",value >= 0,value <=2500000,clusterName=="BMTAK", plantName=="Belur")
	then
	
		b.setData("FinanceHead-"+b.getPlantName()+"::UnitHead-"+b.getPlantName()+"::BFH-BMTA::BH-BMTA");
		
	   
end

rule "Aluminium2-Belur-rp-plant"
	when
		b : Business(businessType =="Aluminium", requestType == "Planned",value >5000000,value <=10000000,clusterName=="BMTAK", plantName=="Belur")
		||
		b : Business(businessType =="Aluminium", requestType == "Unplanned",value >2500000,value <=7500000,clusterName=="BMTAK", plantName=="Belur")
	then
	    b.setData("FinanceHead-"+b.getPlantName()+"::UnitHead-"+b.getPlantName()+"::BFH-BMTA::BH-BMTA::Controller::CFO");
	
end

rule "Aluminium3-Belur-rp-plant"
	when
		b : Business(businessType =="Aluminium", requestType == "Planned",value >10000000,value <=25000000,clusterName=="BMTAK", plantName=="Belur")
		||
		b : Business(businessType =="Aluminium" ,requestType == "Unplanned",value >7500000,value <=15000000,clusterName=="BMTAK", plantName=="Belur")
	then
	    
	    b.setData("FinanceHead-"+b.getPlantName()+"::UnitHead-"+b.getPlantName()+"::BFH-BMTA::BH-BMTA::Controller::CFO::MD"); 
	  
end

rule "Aluminium4-Belur-rp-plant"
	when
		b : Business(businessType =="Aluminium" ,requestType == "Planned",value >25000000,clusterName=="BMTAK", plantName=="Belur")
		||
		b : Business(businessType =="Aluminium", requestType == "Unplanned",value >15000000,clusterName=="BMTAK", plantName=="Belur")
	then
	   
	   	    b.setData("FinanceHead-"+b.getPlantName()+"::UnitHead-"+b.getPlantName()+"::BFH-BMTA::BH-BMTA::Controller::CFO::MD"); 
	   
	    
end

rule "Aluminium1-Alupuram-rp-plant"
	when
		b : Business(businessType =="Aluminium",requestType == "Planned",value >= 0,value <=5000000,clusterName=="BMTAK", plantName =="Alupuram")
		||
		b : Business(businessType =="Aluminium" ,requestType == "Unplanned",value >= 0,value <=2500000,clusterName=="BMTAK", plantName =="Alupuram")
	then
	   
	   	   	    b.setData("FinanceHead-"+b.getPlantName()+"::Unit Head-"+b.getPlantName()+"::BFH-BMTA::BH-BMTA"); 
	   
	    
end

rule "Aluminium2-Alupuram-rp-plant"
	when
		b : Business(businessType =="Aluminium", requestType == "Planned",value >5000000,value <=10000000,clusterName=="BMTAK", plantName =="Alupuram")
		||
		b : Business(businessType =="Aluminium", requestType == "Unplanned",value >2500000,value <=7500000,clusterName=="BMTAK", plantName =="Alupuram")
	then
	   
	   b.setData("FinanceHead-"+b.getPlantName()+"::UnitHead-"+b.getPlantName()+"::BFH-BMTA::BH-BMTA::Controller::CFO"); 
	  
end

rule "Aluminium3-Alupuram-rp-plant"
	when
		b : Business(businessType =="Aluminium", requestType == "Planned",value >10000000,value <=25000000,clusterName=="BMTAK", plantName =="Alupuram")
		||
		b : Business(businessType =="Aluminium" ,requestType == "Unplanned",value >7500000,value <=15000000,clusterName=="BMTAK", plantName =="Alupuram")
	then
	   
	    b.setData("FinanceHead-"+b.getPlantName()+"::UnitHead-"+b.getPlantName()+"::BFH-BMTA::BH-BMTA::Controller::CFO::MD"); 
	   
	  
end

rule "Aluminium4-Alupuram-rp-plant"
	when
		b : Business(businessType =="Aluminium" ,requestType == "Planned",value >25000000,clusterName=="BMTAK", plantName =="Alupuram")
		||
		b : Business(businessType =="Aluminium", requestType == "Unplanned",value >15000000,clusterName=="BMTAK",plantName =="Alupuram")
	then
	   	    b.setData("FinanceHead-"+b.getPlantName()+"::UnitHead-"+b.getPlantName()+"::BFH-BMTA::BH-BMTA::Controller::CFO::MD"); 
	   
	
end

rule "Aluminium1-Taloja-rp-plant"
	when
		b : Business(businessType =="Aluminium",requestType == "Planned",value >= 0,value <=5000000,clusterName=="BMTAK", plantName=="Taloja")
		||
		b : Business(businessType =="Aluminium" ,requestType == "Unplanned",value >= 0,value <=2500000,clusterName=="BMTAK", plantName=="Taloja")
	then
	    b.setData("FinanceHead-"+b.getPlantName()+"::UnitHead-"+b.getPlantName()+"::BFH-BMTA::BH-BMTA");
end

rule "Aluminium2-Taloja-rp-plant"
	when
		b : Business(businessType =="Aluminium", requestType == "Planned",value >5000000,value <=10000000,clusterName=="BMTAK", plantName=="Taloja")
		||
		b : Business(businessType =="Aluminium", requestType == "Unplanned",value >2500000,value <=7500000,clusterName=="BMTAK", plantName=="Taloja")
	then
	     b.setData("FinanceHead-"+b.getPlantName()+"::Unit Head-"+b.getPlantName()+"::BFH-BMTA::BH-BMTA::Controller::CFO"); 
end

rule "Aluminium3-Taloja-rp-plant"
	when
		b : Business(businessType =="Aluminium", requestType == "Planned",value >10000000,value <=25000000,clusterName=="BMTAK", plantName=="Taloja")
		||
		b : Business(businessType =="Aluminium" ,requestType == "Unplanned",value >7500000,value <=15000000,clusterName=="BMTAK", plantName=="Taloja")
	then
	     b.setData("FinanceHead-"+b.getPlantName()+"::UnitHead-"+b.getPlantName()+"::BFH-BMTA::BH-BMTA::Controller::CFO::MD");
end

rule "Aluminium4-Taloja-rp-plant"
	when
		b : Business(businessType =="Aluminium" ,requestType == "Planned",value >25000000,clusterName=="BMTAK", plantName=="Taloja")
		||
		b : Business(businessType =="Aluminium", requestType == "Unplanned",value >15000000,clusterName=="BMTAK", plantName=="Taloja")
	then
	     b.setData("FinanceHead-"+b.getPlantName()+"::UnitHead-"+b.getPlantName()+"::BFH-BMTA::BH-BMTA::Controller::CFO::MD"); 
end



rule "Aluminium1-Mouda-rp-plant"
	when
		b : Business(businessType =="Aluminium" ,requestType == "Planned",value >= 0,value <=5000000,clusterName=="BMTAK", plantName=="Mouda")
		||
		b : Business(businessType =="Aluminium", requestType == "Unplanned",value >= 0,value <=2500000,clusterName=="BMTAK", plantName=="Mouda")
	then
	   b.setData("FinanceHead-"+b.getPlantName()+"::UnitHead-"+b.getPlantName()+"::BFH-BMTA::BH-BMTA");
end

rule "Aluminium2-Mouda-rp-plant"
	when
		b : Business(businessType =="Aluminium" ,requestType == "Planned",value >5000000,value <=7500000,clusterName=="BMTAK", plantName=="Mouda")
		||
		b : Business(businessType =="Aluminium", requestType == "Unplanned",value >2500000,value <=5000000,clusterName=="BMTAK", plantName=="Mouda")
	then
	    b.setData("FinanceHead-"+b.getPlantName()+"::UnitHead-"+b.getPlantName()+"::BFH-BMTA::BH-BMTA::Controller::CFO"); 
end

rule "Aluminium3-Mouda-rp-plant"
	when
		b : Business(businessType =="Aluminium", requestType == "Planned",value >7500000,value <=15000000,clusterName=="BMTAK", plantName=="Mouda")
		||
		b : Business(businessType =="Aluminium", requestType == "Unplanned",value >5000000,value <=10000000,clusterName=="BMTAK", plantName=="Mouda")
	then
	   b.setData("FinanceHead-"+b.getPlantName()+"::UnitHead-"+b.getPlantName()+"::BFH-BMTA::BH-BMTA::Controller::CFO::MD");
end

rule "Aluminium4-Mouda-rp-plant"
	when
		b : Business(businessType =="Aluminium" ,requestType == "Planned",value >15000000,clusterName=="BMTAK", plantName=="Mouda")
		||
		b : Business(businessType =="Aluminium", requestType == "Unplanned",value >10000000,clusterName=="BMTAK", plantName=="Mouda")
	then
	    b.setData("FinanceHead-"+b.getPlantName()+"::UnitHead-"+b.getPlantName()+"::BFH-BMTA::BH-BMTA::Controller::CFO::MD"); 
end

rule "Function1-Marketing-rp-plant"
	when
		b : Business(businessType =="Aluminium",requestType == "Planned",value >= 0,value <=2500000,clusterName=="None",plantName=="None")
		||
		b : Business(businessType =="Aluminium",requestType == "Unplanned",value >= 0,value <=1000000,clusterName=="None",plantName=="None")
	then
	    ArrayList<User> list = new ArrayList();
	    System.out.println("Planned upto Rs. 25 lakh && Unplanned upto Rs. 10 lakh");
	    
		User u;
		
		u = new User();
		u.setRole("CMO-Aluminium");
		u.setSequence(2);
		list.add(u);
		
		    	
    	b.setUsers(list);
end
rule "Function2-Marketing-rp-plant"
	when
		b : Business(businessType =="Aluminium" ,requestType == "Planned",value >2500000,value <=5000000,clusterName=="None",plantName=="None")
		||
		b : Business(businessType =="Aluminium" ,requestType == "Unplanned",value >1000000,value <=2500000,clusterName=="None",plantName=="None")
	then
	    ArrayList<User> list = new ArrayList();
	    System.out.println("Planned upto Rs. 25 lakh && Unplanned upto Rs. 10 lakh");
	    
		User u;
		
		u = new User();
		u.setRole("CFO");
		u.setSequence(2);
		list.add(u);
		
		    	
    	b.setUsers(list);
end
rule "Function3-Marketing-rp-plant"
	when
		b : Business(businessType =="Aluminium" ,requestType == "Planned",value >5000000,value <=10000000,clusterName=="None",plantName=="None")
		||
		b : Business(businessType =="Aluminium" ,requestType == "Unplanned",value >2500000,value <=5000000,clusterName=="None",plantName=="None")
	then
	    ArrayList<User> list = new ArrayList();
	    System.out.println("Planned upto Rs. 100 lakh && Unplanned upto Rs. 50 lakh");
	    
		User u;
		
		u = new User();
		u.setRole("MD");
		u.setSequence(2);
		list.add(u);
		
		    	
    	b.setUsers(list);
end
rule "Function4-Marketing-rp-plant"
	when
		b : Business(businessType =="Aluminium" ,requestType == "Planned",value >10000000,clusterName=="None",plantName=="None")
		||
		b : Business(businessType =="Aluminium" ,requestType == "Unplanned",value >5000000,clusterName=="None",plantName=="None")
	then
	    ArrayList<User> list = new ArrayList();
	    System.out.println("Planned above Rs. 100 lakh && Unplanned above Rs. 50 lakh");
	    
		User u;
		

		u = new User();
		u.setRole("MD");
		u.setSequence(2);
		list.add(u);
		    	
    	b.setUsers(list);
end
rule "Function1-Office-rp-plant"
	when
		b : Business(businessType =="Aluminium" ,requestType == "Planned",value >= 0,value <=5000000,clusterName=="None",plantName=="None")
		||
		b : Business(businessType =="Aluminium" ,requestType == "Unplanned",value >= 0,value <=2500000,clusterName=="None",plantName=="None")
	then
	    ArrayList<User> list = new ArrayList();
	    System.out.println("Planned above Rs. 100 lakh && Unplanned above Rs. 50 lakh");
	    
		User u;
	
		
		u = new User();
		u.setRole("CFO");
		u.setSequence(2);
		list.add(u);
		
		    	
    	b.setUsers(list);
end
rule "Function2-Office-rp-plant"
	when
		b : Business(businessType =="Aluminium" ,requestType == "Planned",value >5000000,clusterName=="None",plantName=="None")
		||
		b : Business(businessType =="Aluminium" ,requestType == "Unplanned",value >2500000,clusterName=="None",plantName=="None")
	then
	    ArrayList<User> list = new ArrayList();
	    System.out.println("Planned above Rs. 50 lakh && Unplanned above Rs. 25 lakh");
	    
		User u;
		
		u = new User();
		u.setRole("MD");
		u.setSequence(2);
		list.add(u);
		
	
		    	
    	b.setUsers(list);
end



rule "Rule31-rp-Belgaum"
	when
		b : Business(businessType=="Aluminium",requestType == "Planned",value > 5000000,value <= 10000000,clusterName=="Chemical & Carbons",plantName=="Belgaum")
		||
		b : Business(businessType=="Aluminium",requestType == "Unplanned",value > 2500000,value <= 7500000,clusterName=="Chemical & Carbons",plantName=="Belgaum")
	then
	    
	      b.setData("FinanceHead-Belgaum::UnitHead-Belgaum::BFM-ChemicalCarbon::BH-ChemicalCarbon::Controller::CFO");
		
end

rule "Rule32-rp-Belgaum"
	when
		b : Business(businessType=="Aluminium",requestType == "Planned",value > 10000000,value <= 25000000,clusterName=="Chemical & Carbons",plantName=="Belgaum")
		||
		b : Business(businessType=="Aluminium",requestType == "Unplanned",value > 7500000,value <= 15000000,clusterName=="Chemical & Carbons",plantName=="Belgaum")
	then
	    
		b.setData("FinanceHead-Belgaum::UnitHead-Belgaum::BFM-ChemicalCarbon::BH-ChemicalCarbon::Controller::CFO::MD");
		
end

rule "Rule33-rp-Belgaum"
	when
		b : Business(businessType=="Aluminium",requestType == "Planned",value > 25000000,clusterName=="Chemical & Carbons",plantName=="Belgaum")
		||
		b : Business(businessType=="Aluminium",requestType == "Unplanned",value > 15000000,clusterName=="Chemical & Carbons",plantName=="Belgaum")
	then
	
	  b.setData("FinanceHead-Belgaum::UnitHead-Belgaum::BFM-ChemicalCarbon::BH-ChemicalCarbon::Controller::CFO::MD");
end

rule "Rule29-rp-Chemical"

when b : Business(businessType=="Aluminium",requestType == "Planned",value >= 0,value <= 5000000,clusterName=="Chemical & Carbons",plantName=="Belgaum Chemicals")
 
then b.setData("FinanceHead-BelgaumChemicals::UnitHead-BelgaumChemicals::BFM-ChemicalCarbon::BH-ChemicalCarbon");

end

rule "Rule30-rp-Chemical"

when b : Business(businessType=="Aluminium",requestType == "Unplanned",value >= 0,value <= 2500000,clusterName=="Chemical & Carbons",plantName=="Belgaum Chemicals")
 
then b.setData("FinanceHead-BelgaumChemicals::UnitHead-BelgaumChemicals::BFM-ChemicalCarbon::BH-ChemicalCarbon");

end

rule "Rule31-rp-Chemical"
	when
		b : Business(businessType=="Aluminium",requestType == "Planned",value > 5000000,value <= 10000000,clusterName=="Chemical & Carbons",plantName=="Belgaum Chemicals")
		||
		b : Business(businessType=="Aluminium",requestType == "Unplanned",value > 2500000,value <= 7500000,clusterName=="Chemical & Carbons",plantName=="Belgaum Chemicals")
	then
	    
	      b.setData("FinanceHead-BelgaumChemicals::UnitHead-BelgaumChemicals::BFM-ChemicalCarbon::BH-ChemicalCarbon::Controller::CFO");
		
end

rule "Rule32-rp-Chemical"
	when
		b : Business(businessType=="Aluminium",requestType == "Planned",value > 10000000,value <= 25000000,clusterName=="Chemical & Carbons",plantName=="Belgaum Chemicals")
		||
		b : Business(businessType=="Aluminium",requestType == "Unplanned",value > 7500000,value <= 15000000,clusterName=="Chemical & Carbons",plantName=="Belgaum Chemicals")
	then
	    
		b.setData("FinanceHead-BelgaumChemicals::UnitHead-BelgaumChemicals::BFM-ChemicalCarbon::BH-ChemicalCarbon::Controller::CFO::MD");
		
end

rule "Rule33-rp-Chemical"
	when
		b : Business(businessType=="Aluminium",requestType == "Planned",value > 25000000,clusterName=="Chemical & Carbons",plantName=="Belgaum Chemicals")
		||
		b : Business(businessType=="Aluminium",requestType == "Unplanned",value > 15000000,clusterName=="Chemical & Carbons",plantName=="Belgaum Chemicals")
	then
	
	  b.setData("FinanceHead-BelgaumChemicals::UnitHead-BelgaumChemicals::BFM-ChemicalCarbon::BH-ChemicalCarbon::Controller::CFO::MD");
end

rule "Rule34-rp-Carbons"

when b : Business(businessType=="Aluminium",requestType == "Planned",value >= 0,value <= 5000000,clusterName=="Chemical & Carbons",plantName=="Belgaum Carbon")
 
then b.setData("FinanceHead-BelgaumCarbon::UnitHead-BelgaumCarbon::BFM-ChemicalCarbon::BH-ChemicalCarbon");

end

rule "Rule35-rp-Carbons"

when b : Business(businessType=="Aluminium",requestType == "Unplanned",value >= 0,value <= 2500000,clusterName=="Chemical & Carbons",plantName=="Belgaum Carbon")
 
then b.setData("FinanceHead-BelgaumCarbon::UnitHead-BelgaumCarbon::BFM-ChemicalCarbon::BH-ChemicalCarbon");

end

rule "Rule36-rp-Carbons"
	when
		b : Business(businessType=="Aluminium",requestType == "Planned",value > 5000000,value <= 10000000,clusterName=="Chemical & Carbons",plantName=="Belgaum Carbon")
		||
		b : Business(businessType=="Aluminium",requestType == "Unplanned",value > 2500000,value <= 7500000,clusterName=="Chemical & Carbons",plantName=="Belgaum Carbon")
	then
	    
	      b.setData("FinanceHead-BelgaumCarbon::UnitHead-BelgaumCarbon::BFM-ChemicalCarbon::BH-ChemicalCarbon::Controller::CFO");
		
end

rule "Rule37-rp-Carbons"
	when
		b : Business(businessType=="Aluminium",requestType == "Planned",value > 10000000,value <= 25000000,clusterName=="Chemical & Carbons",plantName=="Belgaum Carbon")
		||
		b : Business(businessType=="Aluminium",requestType == "Unplanned",value > 7500000,value <= 15000000,clusterName=="Chemical & Carbons",plantName=="Belgaum Carbon")
	then
	    
		b.setData("FinanceHead-BelgaumCarbon::UnitHead-BelgaumCarbon::BFM-ChemicalCarbon::BH-ChemicalCarbon::Controller::CFO::MD");
		
end

rule "Rule38-rp-Carbons"
	when
		b : Business(businessType=="Aluminium",requestType == "Planned",value > 25000000,clusterName=="Chemical & Carbons",plantName=="Belgaum Carbon")
		||
		b : Business(businessType=="Aluminium",requestType == "Unplanned",value > 15000000,clusterName=="Chemical & Carbons",plantName=="Belgaum Carbon")
	then
	
	  b.setData("FinanceHead-BelgaumCarbon::UnitHead-BelgaumCarbon::BFM-ChemicalCarbon::BH-ChemicalCarbon::Controller::CFO::MD");
end

rule "Rule39-rp-Chemical-Carbons-Mines"

when b : Business(businessType=="Aluminium",requestType == "Planned",value >= 0,value <= 5000000,clusterName=="Chemical & Carbons",plantName=="West Cost Mines")
 
then b.setData("FinanceHead-Mines::UnitHead-Mines::BFM-ChemicalCarbon::BH-ChemicalCarbon");

end

rule "Rule40-rp-Chemical-Carbons-Mines"

when b : Business(businessType=="Aluminium",requestType == "Unplanned",value >= 0,value <= 2500000,clusterName=="Chemical & Carbons",plantName=="West Cost Mines")
 
then b.setData("FinanceHead-Mines::UnitHead-Mines::BFM-ChemicalCarbon::BH-ChemicalCarbon");

end

rule "Rule41-rp-Chemical-Carbons-Mines"
	when
		b : Business(businessType=="Aluminium",requestType == "Planned",value > 5000000,value <= 10000000,clusterName=="Chemical & Carbons",plantName=="West Cost Mines")
		||
		b : Business(businessType=="Aluminium",requestType == "Unplanned",value > 2500000,value <= 7500000,clusterName=="Chemical & Carbons",plantName=="West Cost Mines")
	then
	    
	      b.setData("FinanceHead-Mines::UnitHead-Mines::BFM-ChemicalCarbon::BH-ChemicalCarbon::Controller::CFO");
		
end

rule "Rule42-rp-Chemical-Mines"
	when
		b : Business(businessType=="Aluminium",requestType == "Planned",value > 10000000,value <= 25000000,clusterName=="Chemical & Carbons",plantName=="West Cost Mines")
		||
		b : Business(businessType=="Aluminium",requestType == "Unplanned",value > 7500000,value <= 15000000,clusterName=="Chemical & Carbons",plantName=="West Cost Mines")
	then
	    
		b.setData("FinanceHead-Mines::UnitHead-Mines::BFM-ChemicalCarbon::BH-ChemicalCarbon::Controller::CFO::MD");
		
end

rule "Rule43-rp-Chemical-Carbons-Mines"
	when
		b : Business(businessType=="Aluminium",requestType == "Planned",value > 25000000,clusterName=="Chemical & Carbons",plantName=="West Cost Mines")
		||
		b : Business(businessType=="Aluminium",requestType == "Unplanned",value > 15000000,clusterName=="Chemical & Carbons",plantName=="West Cost Mines")
	then
	
	  b.setData("FinanceHead-Mines::UnitHead-Mines::BFM-ChemicalCarbon::BH-ChemicalCarbon::Controller::CFO::MD");
end



rule "Rule46-rp-Chemical-Carbons-Muri"
	when
		b : Business(businessType=="Aluminium",requestType == "Planned",value > 5000000,value <= 10000000,clusterName=="Chemical & Carbons",plantName=="Muri")
		||
		b : Business(businessType=="Aluminium",requestType == "Unplanned",value > 2500000,value <= 7500000,clusterName=="Chemical & Carbons",plantName=="Muri")
	then
	    
	      b.setData("FinanceHead-Muri::UnitHead-Muri::BFM-ChemicalCarbon::BH-ChemicalCarbon::Controller::CFO");
		
end

rule "Rule47-rp-Chemical-Muri"
	when
		b : Business(businessType=="Aluminium",requestType == "Planned",value > 10000000,value <= 25000000,clusterName=="Chemical & Carbons",plantName=="Muri")
		||
		b : Business(businessType=="Aluminium",requestType == "Unplanned",value > 7500000,value <= 15000000,clusterName=="Chemical & Carbons",plantName=="Muri")
	then
	    
		b.setData("FinanceHead-Muri::UnitHead-Muri::BFM-ChemicalCarbon::BH-ChemicalCarbon::Controller::CFO::MD");
		
end

rule "Rule48-rp-Chemical-Carbons-Mines"
	when
		b : Business(businessType=="Aluminium",requestType == "Planned",value > 25000000,clusterName=="Chemical & Carbons",plantName=="Muri")
		||
		b : Business(businessType=="Aluminium",requestType == "Unplanned",value > 15000000,clusterName=="Chemical & Carbons",plantName=="Muri")
	then
	
	  b.setData("FinanceHead-Muri::UnitHead-Muri::BFM-ChemicalCarbon::BH-ChemicalCarbon::Controller::CFO::MD");
end

rule "Rule30-IT-rp-plant"
	when
		b : Business(businessType=="None",requestType == "None",value >= 0,value <= 1000000,clusterName=="None")
	then
	    b.setData("CIO");
end

rule "Rule31-IT-rp-plant"
	when
		b : Business(businessType=="None",requestType == "None",value > 1000000,value <= 5000000,clusterName=="None")
	then
	    b.setData("CIO::CFO");
end

rule "Rule32-IT-rp-plant"
	when
		b : Business(businessType=="None",requestType == "None",value > 5000000 ,clusterName=="None")
	then
	    b.setData("CIO::CFO::MD");
end


