
package com.sample;
import com.gt.drools.WFRules.Message;
import com.gt.drools.WFRules.User;
import com.gt.drools.WFRules.Business;
import java.util.ArrayList;

//from row number: 1
rule "Row 1 Sample"
	dialect "mvel"
	when
		b : Business( businessType == "Aluminium" , requestType == "Planned" , materialName != "None" ,materialName != "Coal-Imported", plantName == "Corporate" , value > 0 , value < 250000000,deptId==0)
		||
		b : Business( businessType == "Aluminium" , requestType == "Unplanned" , materialName != "None" ,materialName != "Coal-Imported", plantName == "Corporate" , value > 0 , value < 150000000,deptId==0)
	then
		b.setData( "CPPCFinanceHead.Controller::Head-RawMaterial" );
end

//from row number: 2
rule "Row 2 Sample"
	dialect "mvel"
	when
		b : Business( businessType == "Aluminium" , requestType == "Planned" , materialName != "None" ,materialName != "Coal-Imported", plantName == "Corporate" , value >= 250000000 , value <= 500000000 ,deptId==0)
		||
		b : Business( businessType == "Aluminium" , requestType == "Unplanned" , materialName != "None" ,materialName != "Coal-Imported", plantName == "Corporate" , value >= 150000000 , value <= 300000000 ,deptId==0)
	then
		b.setData( "CPPCFinanceHead::Head-RawMaterial::Controller::CFO" );
end

//from row number: 3
rule "Row 3 Sample"
	dialect "mvel"
	when
		b : Business( businessType == "Aluminium" , requestType == "Planned" , materialName != "None" ,materialName != "Coal-Imported", plantName == "Corporate" , value > 500000000 ,deptId==0)
		||
		b : Business( businessType == "Aluminium" , requestType == "Unplanned" , materialName != "None" ,materialName != "Coal-Imported", plantName == "Corporate" , value > 300000000 ,deptId==0)
	then
		b.setData( "CPPCFinanceHead::Head-RawMaterial::Controller::CFO::MD" );
end



rule "Row 4 Sample"
	dialect "mvel"
	when
		b : Business( businessType == "Aluminium" , requestType == "Planned" , materialName == "Coal-Imported" , materialName != "None" , plantName == "Corporate" , value > 0 ,value < 250000000 ,deptId==0)
		||
		b : Business( businessType == "Aluminium" , requestType == "Unplanned" , materialName == "Coal-Imported" , materialName != "None" , plantName == "Corporate" , value > 0 ,value < 150000000 ,deptId==0)
	then
		b.setData( "SE-Mining & Minerals-Coal Procurement::SE-Mining & Minerals-Controller::Head-RawMaterial" );
end


rule "Row 5 Sample"
	dialect "mvel"
	when
		b : Business( businessType == "Aluminium" , requestType == "Planned" , materialName == "Coal-Imported" , materialName != "None" , plantName == "Corporate" , value >= 250000000,value <= 500000000 ,deptId==0)
		||
		b : Business( businessType == "Aluminium" , requestType == "Unplanned" , materialName == "Coal-Imported" , materialName != "None" , plantName == "Corporate" , value >= 150000000,value <= 300000000,deptId==0)
	then
		b.setData( "SE-Mining & Minerals-Coal Procurement::SE-Mining & Minerals-Controller::Head-RawMaterial::SE-Mining & Minerals-Head" );
end



rule "Row 6 Sample"
	dialect "mvel"
	when
		b : Business( businessType == "Aluminium" , requestType == "Planned" , materialName == "Coal-Imported" , materialName != "None" , plantName == "Corporate" , value > 500000000 ,deptId==0)
		||
		b : Business( businessType == "Aluminium" , requestType == "Unplanned" , materialName == "Coal-Imported" , materialName != "None" , plantName == "Corporate" , value > 300000000 ,deptId==0)
	then
		b.setData( "SE-Mining & Minerals-Coal Procurement::SE-Mining & Minerals-Controller::Head-RawMaterial::SE-Mining & Minerals-Head::CFO::MD" );
end


rule "Row 7 Sample"
	dialect "mvel"
	when
		b : Business( businessType == "Copper" , requestType == "Planned" , materialName != "None" , plantName == "Corporate" , value > 0 , value < 50000000 ,deptId==0)
		||
		b : Business( businessType == "Copper" , requestType == "Unplanned" , materialName != "None" , plantName == "Corporate" , value > 0 , value < 30000000 ,deptId==0)
	then
		b.setData( "Dahej - Head F & C.Controller::Head-RawMaterial" );
end


rule "Row 8 Sample"
	dialect "mvel"
	when
		b : Business( businessType == "Copper" , requestType == "Planned" , materialName != "None" , plantName == "Corporate" , value >= 50000000 , value <= 500000000 ,deptId==0)
		||
		b : Business( businessType == "Copper" , requestType == "Unplanned" , materialName != "None" , plantName == "Corporate" , value >= 30000000 , value <= 300000000 ,deptId==0)
	then	
		b.setData( "Dahej - Head F & C.Controller::Head-RawMaterial::BH-Copper" );
end


rule "Row 9 Sample"
	dialect "mvel"
	when
		b : Business( businessType == "Copper" , requestType == "Planned" , materialName != "None" , plantName == "Corporate" , value >  500000000 ,deptId==0)
		||
		b : Business( businessType == "Copper" , requestType == "Unplanned" , materialName != "None" , plantName == "Corporate" , value >  300000000 ,deptId==0)
	then	
		b.setData( "Dahej - Head F & C.Controller::Head-RawMaterial::BH-Copper::CFO::MD" );
end


rule "Row 10 Sample"
	dialect "mvel"
	when
		b : Business( businessType == "All" , requestType == "Planned" , materialName != "None" ,materialName != "Coal-Imported", plantName == "Corporate" , value > 0 , value < 250000000,deptId==0)
		||
		b : Business( businessType == "All" , requestType == "Unplanned" , materialName != "None" ,materialName != "Coal-Imported", plantName == "Corporate" , value > 0 , value < 150000000,deptId==0)
	then
		b.setData( "CPPCFinanceHead.Controller::Head-RawMaterial" );
end


rule "Row 11 Sample"
	dialect "mvel"
	when
		b : Business( businessType == "All" , requestType == "Planned" , materialName != "None" ,materialName != "Coal-Imported", plantName == "Corporate" , value >= 250000000 , value <= 500000000 ,deptId==0)
		||
		b : Business( businessType == "All" , requestType == "Unplanned" , materialName != "None" ,materialName != "Coal-Imported", plantName == "Corporate" , value >= 150000000 , value <= 300000000 ,deptId==0)
	then
		b.setData( "CPPCFinanceHead::Head-RawMaterial::Controller::CFO" );
end


rule "Row 12 Sample"
	dialect "mvel"
	when
		b : Business( businessType == "All" , requestType == "Planned" , materialName != "None" ,materialName != "Coal-Imported", plantName == "Corporate" , value > 500000000 ,deptId==0)
		||
		b : Business( businessType == "All" , requestType == "Unplanned" , materialName != "None" ,materialName != "Coal-Imported", plantName == "Corporate" , value > 300000000 ,deptId==0)
	then
		b.setData( "CPPCFinanceHead::Head-RawMaterial::Controller::CFO::MD" );
end



rule "Row 13 Sample"
	dialect "mvel"
	when
		b : Business( businessType == "Aluminium" , plantName == "Corporate" , deptId==0 , doa == 'RAW01')
	then	
		b.setData( "CPPCFinanceHead::Head-RawMaterial::Controller::CFO::MD" );
end


rule "Row 14 Sample"
	dialect "mvel"
	when
		b : Business( businessType == "Copper" , plantName == "Corporate" , deptId==0 , doa == 'RAW01')
	then	
		b.setData( "Dahej - Head F & C.Controller::Head-RawMaterial::BH-Copper::CFO::MD" );
end
